<svg xmlns="http://www.w3.org/2000/svg" xmlns:xlink="http://www.w3.org/1999/xlink" width="22" height="28" viewBox="0 0 22 28">
    <defs>
        <path id="xd0wa" d="M106.9 592.75v.02a3.94 3.94 0 0 1-3.94 3.95 3.94 3.94 0 0 1-3.9-3.99 3.94 3.94 0 0 1 3.94-3.95 3.94 3.94 0 0 1 3.9 3.97zm-3.9 2.12a2.1 2.1 0 0 0 2.07-2.12v-.02a2.1 2.1 0 0 0-2.1-2.1 2.1 2.1 0 0 0-2.08 2.14 2.1 2.1 0 0 0 2.1 2.1zm9-2.14a9.54 9.54 0 0 1-1.9 6.27l-6.37 8.63a.9.9 0 0 1-1.47 0l-6.36-8.64a9.54 9.54 0 0 1-1.9-6.26c.32-4.9 4.27-8.73 9-8.73s8.68 3.84 9 8.73zm-1.82.12c-.23-3.44-2.97-7-7.18-7-4.2 0-6.95 3.57-7.18 7.01-.1 1.81.46 3.6 1.55 5.03l5.63 7.62 5.63-7.62a7.67 7.67 0 0 0 1.55-5.04z"/>
    </defs>
    <g>
    <g transform="translate(-92 -582)">
    <use fill="#aebace" xlink:href="#xd0wa"/>
</g>
</g>
</svg>